program: decl_list:
  decl_list:
    decl_list: decl: func:
      annotations:
      expr: log_expr: comp_expr: add_expr: mul_expr: unary: primary: primary_no_call: int
      func_id: gcd1
      (
      param_list_opt: param_list:
        param_list: param:
          param_name: primary_no_call: var_use: a
          :
          param_type: primary_no_call: int
        ,
        param:
          param_name: primary_no_call: var_use: b
          :
          param_type: primary_no_call: int
      )
      block:
        {
        stmt_list:
          stmt_list: stmt: while_stmt:
            while
            (
            expr: log_expr: comp_expr:
              comp_expr: add_expr: mul_expr: unary: primary: primary_no_call: var_use: a
              !=
              add_expr: mul_expr: unary: primary: primary_no_call: var_use: b
            )
            block:
              {
              stmt_list: stmt: if_stmt:
                if
                (
                expr: log_expr: comp_expr:
                  comp_expr: add_expr: mul_expr: unary: primary: primary_no_call: var_use: a
                  >
                  add_expr: mul_expr: unary: primary: primary_no_call: var_use: b
                )
                block:
                  {
                  stmt_list: stmt: assign:
                    var_use: a
                    =
                    expr: log_expr: comp_expr: add_expr:
                      add_expr: mul_expr: unary: primary: primary_no_call: var_use: a
                      -
                      mul_expr: unary: primary: primary_no_call: var_use: b
                    ;
                  }
                else
                block:
                  {
                  stmt_list: stmt: assign:
                    var_use: b
                    =
                    expr: log_expr: comp_expr: add_expr:
                      add_expr: mul_expr: unary: primary: primary_no_call: var_use: b
                      -
                      mul_expr: unary: primary: primary_no_call: var_use: a
                    ;
                  }
              }
          stmt: return:
            return
            expr: log_expr: comp_expr: add_expr: mul_expr: unary: primary: primary_no_call: var_use: a
            ;
        }
    decl: func:
      annotations:
      expr: log_expr: comp_expr: add_expr: mul_expr: unary: primary: primary_no_call: int
      func_id: gcd2
      (
      param_list_opt: param_list:
        param_list: param:
          param_name: primary_no_call: var_use: a
          :
          param_type: primary_no_call: int
        ,
        param:
          param_name: primary_no_call: var_use: b
          :
          param_type: primary_no_call: int
      )
      block:
        {
        stmt_list:
          stmt_list: stmt: if_stmt:
            if
            (
            expr: log_expr: comp_expr:
              comp_expr: add_expr: mul_expr: unary: primary: primary_no_call: var_use: b
              ==
              add_expr: mul_expr: unary: primary: primary_no_call: num: 0
            )
            block:
              {
              stmt_list: stmt: return:
                return
                expr: log_expr: comp_expr: add_expr: mul_expr: unary: primary: primary_no_call: var_use: a
                ;
              }
          stmt: return:
            return
            expr: log_expr: comp_expr: add_expr: mul_expr: unary: primary: call:
              var_use: gcd2
              tuple:
                (
                tuple_args:
                  tuple_args: expr: log_expr: comp_expr: add_expr: mul_expr: unary: primary: primary_no_call: var_use: b
                  ,
                  expr: log_expr: comp_expr: add_expr: mul_expr:
                    mul_expr: unary: primary: primary_no_call: var_use: a
                    %
                    unary: primary: primary_no_call: var_use: b
                )
            ;
        }
  decl: func:
    annotations:
    expr: log_expr: comp_expr: add_expr: mul_expr: unary: primary: primary_no_call: int
    func_id: main
    (
    param_list_opt:
    )
    block:
      {
      stmt_list:
        stmt_list:
          stmt_list:
            stmt_list:
              stmt_list: stmt: call_stmt:
                call:
                  var_use: print
                  tuple:
                    (
                    tuple_args: expr: log_expr: comp_expr: add_expr: mul_expr: unary: primary: call:
                      var_use: gcd1
                      tuple:
                        (
                        tuple_args:
                          tuple_args: expr: log_expr: comp_expr: add_expr: mul_expr: unary: primary: primary_no_call: num: 24
                          ,
                          expr: log_expr: comp_expr: add_expr: mul_expr: unary: primary: primary_no_call: num: 20
                        )
                    )
                ;
              stmt: call_stmt:
                call:
                  var_use: print
                  tuple:
                    (
                    tuple_args: expr: log_expr: comp_expr: add_expr: mul_expr: unary: primary: call:
                      var_use: gcd2
                      tuple:
                        (
                        tuple_args:
                          tuple_args: expr: log_expr: comp_expr: add_expr: mul_expr: unary: primary: primary_no_call: num: 24
                          ,
                          expr: log_expr: comp_expr: add_expr: mul_expr: unary: primary: primary_no_call: num: 20
                        )
                    )
                ;
            stmt: call_stmt:
              call:
                var_use: print
                tuple:
                  (
                  tuple_args: expr: log_expr: comp_expr: add_expr: mul_expr: unary: primary: call:
                    var_use: gcd1
                    tuple:
                      (
                      tuple_args:
                        tuple_args: expr: log_expr: comp_expr: add_expr: mul_expr: unary: primary: primary_no_call: num: 20
                        ,
                        expr: log_expr: comp_expr: add_expr: mul_expr: unary: primary: primary_no_call: num: 24
                      )
                  )
              ;
          stmt: call_stmt:
            call:
              var_use: print
              tuple:
                (
                tuple_args: expr: log_expr: comp_expr: add_expr: mul_expr: unary: primary: call:
                  var_use: gcd2
                  tuple:
                    (
                    tuple_args:
                      tuple_args: expr: log_expr: comp_expr: add_expr: mul_expr: unary: primary: primary_no_call: num: 20
                      ,
                      expr: log_expr: comp_expr: add_expr: mul_expr: unary: primary: primary_no_call: num: 24
                    )
                )
            ;
        stmt: return:
          return
          expr: log_expr: comp_expr: add_expr: mul_expr: unary: primary: primary_no_call: num: 0
          ;
      }